TP;ADD;24x7;24_Hours_A_Day,_7_Days_A_Week
TP;setparam;24x7;tp_sunday;00:00-24:00
TP;setparam;24x7;tp_monday;00:00-24:00
TP;setparam;24x7;tp_tuesday;00:00-24:00
TP;setparam;24x7;tp_wednesday;00:00-24:00
TP;setparam;24x7;tp_thursday;00:00-24:00
TP;setparam;24x7;tp_friday;00:00-24:00
TP;setparam;24x7;tp_saturday;00:00-24:00
TP;ADD;none;No Time Is A Good Time
TP;ADD;nonworkhours;Non-Work Hours
TP;setparam;nonworkhours;tp_sunday;00:00-24:00
TP;setparam;nonworkhours;tp_monday;00:00-09:00,17:00-24:00
TP;setparam;nonworkhours;tp_tuesday;00:00-09:00,17:00-24:00
TP;setparam;nonworkhours;tp_wednesday;00:00-09:00,17:00-24:00
TP;setparam;nonworkhours;tp_thursday;00:00-09:00,17:00-24:00
TP;setparam;nonworkhours;tp_friday;00:00-09:00,17:00-24:00
TP;setparam;nonworkhours;tp_saturday;00:00-24:00
TP;ADD;workhours;Work hours
TP;setparam;workhours;tp_monday;09:00-17:00
TP;setparam;workhours;tp_tuesday;09:00-17:00
TP;setparam;workhours;tp_wednesday;09:00-17:00
TP;setparam;workhours;tp_thursday;09:00-17:00
TP;setparam;workhours;tp_friday;09:00-17:00
TP;ADD;Week-end;Week-end
TP;setparam;Week-end;tp_sunday;00:00-24:00
TP;setparam;Week-end;tp_monday;00:00-9:00
TP;setparam;Week-end;tp_saturday;00:00-24:00
TP;ADD;astreinte_messagerie_operationnelle;astreinte_messagerie_operationnelle
TP;setparam;astreinte_messagerie_operationnelle;tp_sunday;00:00-24:00
TP;setparam;astreinte_messagerie_operationnelle;tp_monday;00:00-09:00,18:00-24:00
TP;setparam;astreinte_messagerie_operationnelle;tp_tuesday;00:00-09:00,18:00-24:00
TP;setparam;astreinte_messagerie_operationnelle;tp_wednesday;00:00-09:00,18:00-24:00
TP;setparam;astreinte_messagerie_operationnelle;tp_thursday;00:00-09:00,18:00-24:00
TP;setparam;astreinte_messagerie_operationnelle;tp_friday;00:00-09:00,18:00-24:00
TP;setparam;astreinte_messagerie_operationnelle;tp_saturday;00:00-24:00