SC;ADD;Ping;ping
SC;setparam;Ping;sc_activate;1
SC;ADD;Traffic;Traffic
SC;setparam;Traffic;sc_activate;1
SC;ADD;Disk;Disk
SC;setparam;Disk;sc_activate;0
SC;ADD;Memory;Memory
SC;setparam;Memory;sc_activate;0
SC;addservicetemplate;Ping;Ping-LAN
SC;addservicetemplate;Ping;Ping-WAN
SC;addservicetemplate;Disk;SNMP-DISK-/
SC;addservicetemplate;Disk;SNMP-DISK-/home
SC;addservicetemplate;Disk;SNMP-DISK-/opt
SC;addservicetemplate;Disk;SNMP-DISK-/usr
SC;addservicetemplate;Disk;SNMP-DISK-/var
SC;addservicetemplate;Disk;SNMP-DISK-C:
SC;addservicetemplate;Disk;SNMP-DISK-E:
SC;addservicetemplate;Memory;SNMP-Linux-Swap
SC;addservicetemplate;Memory;SNMP-Win2K-memory
SC;addservicetemplate;Memory;SNMP-Win2K3-Memory
SC;addservicetemplate;Memory;SNMP-Win2K3-Swap
SC;addservicetemplate;Memory;SNMP-Linux-Memory
